org\ksga\springboot\sahakka\security\UserDetailsServiceImp.class
org\ksga\springboot\sahakka\controllers\restcontroller\AuthRestController.class
org\ksga\springboot\sahakka\controllers\dashboardController\DashboardController.class
org\ksga\springboot\sahakka\repository\admin_dashboard_repo\BusinessOwnerRepo.class
org\ksga\springboot\sahakka\service\PostService.class
org\ksga\springboot\sahakka\controllers\restcontroller\AccountRestController.class
org\ksga\springboot\sahakka\repository\admin_dashboard_repo\dashboardProvider\DashboardProvider$9.class
org\ksga\springboot\sahakka\repository\admin_dashboard_repo\dashboardProvider\DashboardProvider.class
org\ksga\springboot\sahakka\service\serviceImp\dashbaordServiceImp\FreelancerServiceImp.class
org\ksga\springboot\sahakka\payload\request\accountrequest\FreelancerUpdateRequest.class
org\ksga\springboot\sahakka\payload\request\ServicePostRequest\ServicePostRequest.class
org\ksga\springboot\sahakka\model\user\AuthUser.class
org\ksga\springboot\sahakka\repository\UserRepository.class
org\ksga\springboot\sahakka\payload\response\Response$PageMetaData.class
org\ksga\springboot\sahakka\dto\postDto\UserPost.class
org\ksga\springboot\sahakka\service\serviceImp\CategoryImp.class
org\ksga\springboot\sahakka\payload\request\userRequest\UserSignUpRequest.class
org\ksga\springboot\sahakka\payload\response\Response$Status.class
org\ksga\springboot\sahakka\model\post\AllReportedProjectPost.class
org\ksga\springboot\sahakka\model\postService\ServicePost.class
org\ksga\springboot\sahakka\model\user\AuthRole.class
org\ksga\springboot\sahakka\model\user\FindFreelancer.class
org\ksga\springboot\sahakka\payload\request\accountrequest\UserUpdateRequest.class
org\ksga\springboot\sahakka\model\dashboardModel\OwnerPost.class
org\ksga\springboot\sahakka\model\postService\ServiceCard.class
org\ksga\springboot\sahakka\payload\request\ServicePostRequest\PostServiceReviewRequest.class
org\ksga\springboot\sahakka\dto\userdto\FindBusinessOwnerDto.class
org\ksga\springboot\sahakka\utilities\Paging.class
org\ksga\springboot\sahakka\dto\categoryDto\CategoryDto.class
org\ksga\springboot\sahakka\repository\admin_dashboard_repo\dashboardProvider\DashboardProvider$3.class
org\ksga\springboot\sahakka\service\CategoryService.class
org\ksga\springboot\sahakka\payload\request\CategoryRequest\CategoryRequest.class
org\ksga\springboot\sahakka\repository\admin_dashboard_repo\CategoryRepo.class
org\ksga\springboot\sahakka\controllers\restcontroller\FileStorageRestController.class
org\ksga\springboot\sahakka\mapping\ServicePostMapper.class
org\ksga\springboot\sahakka\security\handler\CustomAuthenticationSuccessHandler.class
org\ksga\springboot\sahakka\repository\admin_dashboard_repo\dashboardProvider\DashboardProvider$6.class
org\ksga\springboot\sahakka\model\post\Post.class
org\ksga\springboot\sahakka\security\jwt\JwtUtils.class
org\ksga\springboot\sahakka\controllers\restcontroller\PostRestController$PostTypes.class
org\ksga\springboot\sahakka\model\dashboardModel\ViewBusinessOwner.class
org\ksga\springboot\sahakka\controllers\dashboardController\CategoryController.class
org\ksga\springboot\sahakka\configuration\MyBatisConfiguration.class
org\ksga\springboot\sahakka\model\postService\UserServicePost.class
org\ksga\springboot\sahakka\model\post\PostDeadline.class
org\ksga\springboot\sahakka\configuration\CorsFilterConfiguration.class
org\ksga\springboot\sahakka\model\user\User.class
org\ksga\springboot\sahakka\model\Freelancer.class
org\ksga\springboot\sahakka\model\postService\ServicePostCategory.class
org\ksga\springboot\sahakka\configuration\SwaggerConfiguration.class
org\ksga\springboot\sahakka\dto\postDto\Comment.class
org\ksga\springboot\sahakka\repository\admin_dashboard_repo\dashboardProvider\DashboardProvider$4.class
org\ksga\springboot\sahakka\model\post\Comment.class
org\ksga\springboot\sahakka\payload\response\ResponseError.class
org\ksga\springboot\sahakka\service\serviceImp\dashbaordServiceImp\BusinessOwnerServiceImp.class
org\ksga\springboot\sahakka\model\FindBusinessOwner.class
org\ksga\springboot\sahakka\controllers\restcontroller\CategoryRestController.class
org\ksga\springboot\sahakka\repository\admin_dashboard_repo\dashboardProvider\DashboardProvider$13.class
org\ksga\springboot\sahakka\ServletInitializer.class
org\ksga\springboot\sahakka\controllers\restcontroller\ServicePostRestController.class
org\ksga\springboot\sahakka\configuration\SecurityConfig$FormLoginWebSecurityConfigurerAdapter.class
org\ksga\springboot\sahakka\dto\servicepostdto\ServicePostDto.class
org\ksga\springboot\sahakka\dto\freelancerDto\freelancerDto.class
org\ksga\springboot\sahakka\service\serviceImp\ServicePostImp.class
org\ksga\springboot\sahakka\model\user\ERole.class
org\ksga\springboot\sahakka\dto\servicepostdto\ReviewServicePostDto.class
org\ksga\springboot\sahakka\service\ServicePostService.class
org\ksga\springboot\sahakka\model\category\Category.class
org\ksga\springboot\sahakka\dto\userdto\UserLoginDto.class
org\ksga\springboot\sahakka\repository\admin_dashboard_repo\dashboardProvider\DashboardProvider$14.class
org\ksga\springboot\sahakka\controllers\dashboardController\AdminController.class
org\ksga\springboot\sahakka\payload\request\postrequest\PostRequest.class
org\ksga\springboot\sahakka\dto\freelancerDto\FindFreelancerDto.class
org\ksga\springboot\sahakka\payload\request\userRequest\BusinessOwnerSignUpRequest.class
org\ksga\springboot\sahakka\service\serviceImp\dashbaordServiceImp\DashboardServiceImp.class
org\ksga\springboot\sahakka\payload\request\accountrequest\ResetPasswordRequest.class
org\ksga\springboot\sahakka\repository\CategoryRepository.class
org\ksga\springboot\sahakka\controllers\restcontroller\AccountRestController$1.class
org\ksga\springboot\sahakka\controllers\restcontroller\CategoryRestController$ApprovalType.class
org\ksga\springboot\sahakka\service\UserService.class
org\ksga\springboot\sahakka\configuration\FileConfiguration.class
org\ksga\springboot\sahakka\model\dashboardModel\ReportedServicePost.class
org\ksga\springboot\sahakka\dto\userdto\UserSignUpDto.class
org\ksga\springboot\sahakka\controllers\restcontroller\AccountRestController$Roles.class
org\ksga\springboot\sahakka\model\user\UserRole.class
org\ksga\springboot\sahakka\model\BusinessOwner.class
org\ksga\springboot\sahakka\repository\admin_dashboard_repo\dashboardProvider\DashboardProvider$5.class
org\ksga\springboot\sahakka\configuration\SecurityConfig.class
org\ksga\springboot\sahakka\repository\admin_dashboard_repo\dashboardProvider\DashboardProvider$15.class
org\ksga\springboot\sahakka\dto\postDto\FindPostDto.class
org\ksga\springboot\sahakka\service\serviceImp\adminDashboardService\DashboardService.class
org\ksga\springboot\sahakka\dto\userdto\FreelancerUpdateResponse.class
org\ksga\springboot\sahakka\repository\PostRepository.class
org\ksga\springboot\sahakka\controllers\restcontroller\PostRestController.class
org\ksga\springboot\sahakka\security\handler\CustomAuthenticationEntryPoint.class
org\ksga\springboot\sahakka\dto\servicepostdto\FindServicePostDto.class
org\ksga\springboot\sahakka\repository\admin_dashboard_repo\dashboardProvider\DashboardProvider$2.class
org\ksga\springboot\sahakka\controllers\restcontroller\AuthRestController$Provider.class
org\ksga\springboot\sahakka\security\jwt\EntryPointJwt.class
org\ksga\springboot\sahakka\SahakkaApplication.class
org\ksga\springboot\sahakka\service\serviceImp\UserServiceImp.class
org\ksga\springboot\sahakka\model\postService\ServiceCardUser.class
org\ksga\springboot\sahakka\service\serviceImp\adminDashboardService\BusinessOwnerService.class
org\ksga\springboot\sahakka\payload\request\userRequest\FreelancerSignUpRequest.class
org\ksga\springboot\sahakka\controllers\dashboardController\OwnerController.class
org\ksga\springboot\sahakka\repository\admin_dashboard_repo\dashboardProvider\DashboardProvider$12.class
org\ksga\springboot\sahakka\dto\userdto\BusinessOwnerUpdateResponse.class
org\ksga\springboot\sahakka\repository\ServicePostRepository.class
org\ksga\springboot\sahakka\security\handler\CustomLogoutSuccessHandler.class
org\ksga\springboot\sahakka\repository\admin_dashboard_repo\dashboardProvider\DashboardProvider$7.class
org\ksga\springboot\sahakka\controllers\restcontroller\ServicePostRestController$ServicePostTypes.class
org\ksga\springboot\sahakka\service\serviceImp\dashbaordServiceImp\CategoryServiceImp.class
org\ksga\springboot\sahakka\model\postService\Category.class
org\ksga\springboot\sahakka\repository\admin_dashboard_repo\dashboardProvider\DashboardProvider$10.class
org\ksga\springboot\sahakka\dto\postDto\AllProjectPostDto.class
org\ksga\springboot\sahakka\payload\request\ServicePostRequest\PostRequest.class
org\ksga\springboot\sahakka\service\FileStorageService.class
org\ksga\springboot\sahakka\repository\admin_dashboard_repo\FreelancerRepo.class
org\ksga\springboot\sahakka\service\serviceImp\FileStorageServiceImp.class
org\ksga\springboot\sahakka\payload\request\userRequest\UserLoginRequest.class
org\ksga\springboot\sahakka\repository\admin_dashboard_repo\DashboardRepo.class
org\ksga\springboot\sahakka\service\serviceImp\PostImp.class
org\ksga\springboot\sahakka\repository\admin_dashboard_repo\dashboardProvider\DashboardProvider$11.class
org\ksga\springboot\sahakka\payload\request\accountrequest\BusinessOwnerUpdateRequest.class
org\ksga\springboot\sahakka\payload\response\Response.class
org\ksga\springboot\sahakka\model\post\ProjectPost.class
org\ksga\springboot\sahakka\repository\admin_dashboard_repo\dashboardProvider\DashboardProvider$1.class
org\ksga\springboot\sahakka\security\UserDetailsImp.class
org\ksga\springboot\sahakka\service\serviceImp\adminDashboardService\CategoryService.class
org\ksga\springboot\sahakka\repository\admin_dashboard_repo\dashboardProvider\DashboardProvider$8.class
org\ksga\springboot\sahakka\dto\postDto\PostDto.class
org\ksga\springboot\sahakka\configuration\SecurityConfig$ApiWebSecurityConfigurationAdapter.class
org\ksga\springboot\sahakka\model\postService\Review.class
org\ksga\springboot\sahakka\service\serviceImp\adminDashboardService\FreelancerService.class
org\ksga\springboot\sahakka\dto\servicepostdto\AllServicePostDto.class
org\ksga\springboot\sahakka\model\post\AllReportedOfPost.class
org\ksga\springboot\sahakka\dto\accountdto\AccountUpdateDto.class
org\ksga\springboot\sahakka\model\postService\AllReportedServicePost.class
org\ksga\springboot\sahakka\controllers\restcontroller\PostRestController$ScheduleConfiguration.class
org\ksga\springboot\sahakka\controllers\restcontroller\ServicePostRestController$Roles.class
org\ksga\springboot\sahakka\controllers\dashboardController\FreelancerController.class
org\ksga\springboot\sahakka\model\dashboardModel\FreelancerPost.class
org\ksga\springboot\sahakka\security\jwt\JwtTokenFilter.class
